{
  "formatVersion": 1,
  "database": {
    "version": 1,
    "identityHash": "5e727909b80dcbc0fc6c5cfd560065ff",
    "entities": [
      {
        "tableName": "documents",
        "createSql": "CREATE TABLE IF NOT EXISTS `${TABLE_NAME}` (`access_time` INTEGER NOT NULL, `page` INTEGER NOT NULL, `pages` INTEGER NOT NULL, `crop` BLOB NOT NULL, `uri` TEXT NOT NULL, `path` TEXT NOT NULL, `name` TEXT NOT NULL, PRIMARY KEY(`path`))",
        "fields": [
          {
            "fieldPath": "atime",
            "columnName": "access_time",
            "affinity": "INTEGER",
            "notNull": true
          },
          {
            "fieldPath": "page",
            "columnName": "page",
            "affinity": "INTEGER",
            "notNull": true
          },
          {
            "fieldPath": "pages",
            "columnName": "pages",
            "affinity": "INTEGER",
            "notNull": true
          },
          {
            "fieldPath": "crop",
            "columnName": "crop",
            "affinity": "BLOB",
            "notNull": true
          },
          {
            "fieldPath": "uri",
            "columnName": "uri",
            "affinity": "TEXT",
            "notNull": true
          },
          {
            "fieldPath": "path",
            "columnName": "path",
            "affinity": "TEXT",
            "notNull": true
          },
          {
            "fieldPath": "name",
            "columnName": "name",
            "affinity": "TEXT",
            "notNull": true
          }
        ],
        "primaryKey": {
          "columnNames": [
            "path"
          ],
          "autoGenerate": false
        },
        "indices": [],
        "foreignKeys": []
      }
    ],
    "views": [],
    "setupQueries": [
      "CREATE TABLE IF NOT EXISTS room_master_table (id INTEGER PRIMARY KEY,identity_hash TEXT)",
      "INSERT OR REPLACE INTO room_master_table (id,identity_hash) VALUES(42, '5e727909b80dcbc0fc6c5cfd560065ff')"
    ]
  }
}